<?xml version="1.0" encoding="UTF-8"?>
<glyph name="registered" format="1">
  <advance width="1516"/>
  <unicode hex="00AE"/>
  <outline>
    <contour>
      <point x="633" y="670" type="line"/>
      <point x="633" y="713" type="line"/>
      <point x="735" y="713" type="line" smooth="yes"/>
      <point x="844" y="713"/>
      <point x="917" y="749"/>
      <point x="917" y="870" type="curve"/>
      <point x="917" y="991"/>
      <point x="844" y="1027"/>
      <point x="735" y="1027" type="curve" smooth="yes"/>
      <point x="633" y="1027" type="line"/>
      <point x="633" y="1088" type="line"/>
      <point x="754" y="1088" type="line" smooth="yes"/>
      <point x="935" y="1088"/>
      <point x="1060" y="1017"/>
      <point x="1060" y="870" type="curve"/>
      <point x="1060" y="725"/>
      <point x="940" y="670"/>
      <point x="781" y="670" type="curve"/>
    </contour>
    <contour>
      <point x="633" y="1088" type="line"/>
      <point x="633" y="322" type="line"/>
      <point x="645" y="310" type="line"/>
      <point x="745" y="310" type="line"/>
      <point x="745" y="267" type="line"/>
      <point x="396" y="267" type="line"/>
      <point x="396" y="310" type="line"/>
      <point x="496" y="310" type="line"/>
      <point x="509" y="322" type="line"/>
      <point x="509" y="1033" type="line"/>
      <point x="496" y="1045" type="line"/>
      <point x="396" y="1045" type="line"/>
      <point x="396" y="1088" type="line"/>
    </contour>
    <contour>
      <point x="976" y="267" type="line" smooth="yes"/>
      <point x="645" y="653" type="line"/>
      <point x="633" y="653" type="line"/>
      <point x="633" y="670" type="line"/>
      <point x="775" y="670" type="line"/>
      <point x="775" y="658" type="line"/>
      <point x="1099" y="310" type="line"/>
      <point x="1175" y="310" type="line"/>
      <point x="1175" y="267" type="line"/>
    </contour>
    <contour>
      <point x="60" y="678" type="curve" smooth="yes"/>
      <point x="60" y="271"/>
      <point x="352" y="-20"/>
      <point x="758" y="-20" type="curve" smooth="yes"/>
      <point x="1162" y="-20"/>
      <point x="1456" y="271"/>
      <point x="1456" y="678" type="curve" smooth="yes"/>
      <point x="1456" y="1081"/>
      <point x="1162" y="1375"/>
      <point x="758" y="1375" type="curve" smooth="yes"/>
      <point x="352" y="1375"/>
      <point x="60" y="1081"/>
    </contour>
    <contour>
      <point x="140" y="678" type="curve" smooth="yes"/>
      <point x="140" y="1044"/>
      <point x="392" y="1305"/>
      <point x="758" y="1305" type="curve" smooth="yes"/>
      <point x="1113" y="1305"/>
      <point x="1376" y="1044"/>
      <point x="1376" y="678" type="curve" smooth="yes"/>
      <point x="1376" y="313"/>
      <point x="1123" y="50"/>
      <point x="758" y="50" type="curve" smooth="yes"/>
      <point x="392" y="50"/>
      <point x="140" y="313"/>
    </contour>
  </outline>
</glyph>
